Abc 디지털 대리점 재고 관리 프로그램

상품 정보
	- 제품번호
	- 제품명
	- 가격정보
	- 재고수량

1) 상품 정보 관리
	- 상품 추가
	- 상품 조회
	- 상품 정보 수정
	- 상품 삭제

2) 고객 정보 관리
	- 고객 추가
	- 고객 조회
	- 고객 정보 수정
		- 고객정보?
		- 고객 이름
		- 고객 이메일
	- 고객 삭제
3) 상품 판매 관리
	- 상품 구매 (상품 명 기준으로 갯수를 구매)
	- 재고 조회 (팔린 상품, 갯수, 가격, 목록을 보여주고 최종적으로 전체 다 팔린 가격 출력)
