5
6
G W G G W W
G W G G G G
W W W W G W
W G W W G G
G W W W W G
G W W G W G
5
G W G G W
G W G G W
W W W W G
W G W W W
G W W W W
3
G G W
G W W
W W W
3
G G G
G W G
G G G
3
G G G
G G G
G G G

#1 7
#2 7
#3 5
#4 1